15B5I4944001;11/9/2015 9:38:27 PM;357810000502001470;2015;10044;603;10647;1909111521382755;0009;S1FJPUA012
15B5H4455001;11/9/2015 9:50:24 PM;357815000400301310;2015;10056;1006;11062;1909111521502404;0009;S1FJPUA013
15B5H4515001;12/4/2015 6:57:58 PM;357810000502001470;2015;10044;804;10848;1904121518575829;0009;S1FJPU10NS
